{
  "name": "hello-project",
  "organization": "in.net.mukund",
  "package_dir": "{{ cookiecutter.organization|replace('.', '/')}}",
  "version": "0.0.1-SNAPSHOT",
  "scala_version": "3.5.0",
  "sbt_version": "1.10.1"
}